760489 354297 509
165347 424873 449
873545 2332 525
635420 614268 509
157746 338203 443
604890 27722 470
162651 44883 383
474003 332285 449
228941 335388 443
866882 922561 476
752252 646686 504
677163 669423 385
276424 543502 470
710626 401519 509
417297 228608 449
754191 193956 509
665582 946213 525
882992 511418 525
734059 642177 504
791989 483028 509
850909 996958 507
99032 724051 509
411545 11937 449
986245 48157 525
561262 585998 434
472187 932319 525
470551 974262 525
439323 128817 449
241728 452407 449
14762 13924 271
486460 285492 449
708594 629892 504
627188 456229 509
669897 111403 509
621969 280120 470
484637 419956 444
306820 581017 470
607091 297456 470
897754 816926 525
243811 419908 449
206689 912910 525
588381 730788 509
278444 646585 509
660991 523039 509
619513 520988 452
713290 634805 504
315483 470074 449
69377 638010 509
673043 86834 509
689314 348018 509
521174 849687 525
177289 192093 365
904329 419539 525
387359 919564 525
656985 936236 525
376037 879792 525
205931 519862 470
407442 380856 436
144685 963185 525
745599 505854 509
346040 289111 441
915386 401808 525
145809 297569 443
793785 97544 509
540086 956348 525
386529 748705 509
167983 800345 509
172720 321004 443
678707 379519 509
927934 528869 525
580216 503572 470
430598 638805 509
685005 962491 525
798283 564559 509
752754 74766 509
506227 825655 509
209655 98688 383
412930 600619 470
228678 25138 386
535121 92351 470
580087 278091 470
398751 192850 443
681066 523835 509
633663 461899 509
467378 952973 525
532599 211592 470
690022 493828 509
325121 870735 525
295604 870320 525
174637 336819 443
626838 145264 509
132757 483815 449
941007 466749 525
344642 729518 509
862262 568174 525
21572 987379 525
874070 60944 525
79311 894686 525
482131 827233 509
409054 726853 509
963404 178947 525
724541 284141 509
784650 778304 437
278539 206794 443
640886 812623 504
366628 85485 443
993088 81206 525
732949 438070 509
640616 126445 509
529450 230372 470
379920 372106 423
757646 516428 509
214905 704343 509
365219 986888 525
362068 308909 441
822011 142434 509
829398 131264 509
28209 975894 525
766707 983421 525
693385 264398 509
953249 436258 525
693738 862838 525
859 378276 443
150294 927307 525
555959 897579 525
104938 314072 443
955717 165410 525
217301 219490 337
279969 126361 443
666526 611428 509
991752 950800 458
943693 340083 525
527723 408129 470
504845 735107 509
660564 835839 504
306557 884631 525
957951 442860 525
36551 649140 509
433556 252992 449
947162 131993 525
857925 915039 476
330864 693578 509
553191 866782 525
753252 843067 525
722701 391657 509
983905 656907 525
706687 516047 509
487408 146110 449
299410 164563 443
779765 695611 504
175544 477898 449
400481 319286 441
20741 608582 470
636764 104617 509
869816 396610 525
396884 568506 470
739972 283167 509
524802 669629 509
909157 203303 525
234711 25807 443
624975 992424 525
974464 901871 507
358348 809777 509
871460 783599 525
775658 202471 509
434438 363305 449
35408 399409 443
712798 899980 525
690361 343587 509
177415 210404 373
590259 989724 525
633104 681089 442
366968 742258 509
94364 663071 509
12565 883037 525
171964 518809 470
58595 589680 470
252578 293871 407
301696 125571 443
37506 397438 443
792807 901556 525
505496 692956 509
558375 453161 470
57712 796501 509
342649 113705 443
630559 700721 442
525816 461892 470
114540 905911 525
110200 115208 323
11305 37960 324
581591 989178 525
917555 892813 476
18330 33122 308
64754 443598 449
419874 589740 470
497413 109560 449
38183 233524 443
758308 411277 509
381526 685173 509
757255 854735 525
849706 40433 525
612833 949230 525
533733 914054 525
964397 437470 525
652545 30763 509
845372 631322 525
694592 777482 504
961704 181506 525
105388 521248 470
927484 968765 507
997773 897836 507
207237 164771 373
174224 209333 373
614286 856252 525
269434 466549 449
590293 861883 525
17828 520556 470
578238 268857 470
714114 301045 509
644842 330620 509
852596 314516 525
747405 778925 468
285303 333991 389
165564 785511 509
891765 688193 525
466570 632666 509
100413 473099 449
724418 217359 509
403943 610425 470
644593 432671 509
337172 114550 443
384811 563886 470
527558 28212 470
248171 732242 509
753285 819597 468
485725 26025 449
296980 32988 443
753229 194497 509
884881 403078 525
52353 880934 525
533847 619797 452
286963 534936 470
574156 861324 525
392410 807787 509
578785 570984 390
683203 281608 509
119572 723511 509
57333 911973 525
944004 337265 525
625825 517273 452
