1 10 20
100 200 125
201 210 89
900 1000 174
96002 907 351
45048 376999 443
479608 44490 449
89794 390150 443
12853 460717 449
164369 123684 383
708578 810743 468
203529 825275 509
743808 584633 509
671461 261316 509
868623 340250 525
269152 92398 443
519500 858497 525
84260 865227 525
504533 704521 509
530780 12354 470
702355 642587 442
317153 60476 443
275440 659308 509
412763 475874 444
1955 47183 324
375236 248617 441
943601 303737 525
589034 698663 509
15566 290699 443
418603 197760 449
795969 314820 509
201801 844576 525
754495 30018 509
435655 506146 444
182944 174452 365
498454 100991 449
50008 421780 449
133978 931496 525
301816 405929 441
505730 672134 509
765792 607172 509
286580 940868 525
714036 295529 509
277058 377679 441
974543 571602 525
693275 931778 525
107843 324134 443
396977 64552 443
137406 728931 509
478945 806882 509
384615 746968 509
322670 872009 525
891777 867879 445
854672 167640 525
352829 323988 441
543976 239082 470
690514 197662 509
762485 623275 509
134060 967013 525
906285 245741 525
794973 295915 509
610461 811105 509
210929 694091 509
632514 993966 525
657309 711034 504
222644 349936 443
351769 602323 470
636970 136507 509
685446 430612 509
197680 318802 443
658017 228081 509
812971 268117 509
366107 537599 470
560133 782793 509
832871 73190 509
925227 420013 525
394412 212242 443
8730 142802 375
361208 345403 441
637071 565259 509
721694 517784 509
693001 966366 525
63765 513883 470
483776 938441 525
434183 37582 449
276057 926963 525
587503 522742 452
310323 503822 449
592373 728054 509
176974 805734 509
759783 751881 424
194904 884822 525
935128 919327 476
641218 136842 509
973837 492651 525
994656 530618 525
308589 701837 509
153419 453176 449
704747 81337 509
269852 659962 509
147873 660159 509
941102 232048 525
953609 153531 525
79144 833079 509
411896 342303 449
803009 692393 504
304109 272003 389
683819 619721 509
546691 995416 525
34480 376827 443
496921 656547 509
861816 115898 525
56054 489925 449
715192 515900 509
197180 737200 509
18206 732982 509
379971 191646 443
472225 862714 525
953000 194879 525
52867 535735 470
3599 228756 386
127231 829964 509
385685 391325 436
732893 361490 509
997387 568283 525
823738 214487 509
736715 9806 509
737121 548732 509
334492 251445 407
658937 615879 509
630746 970789 525
249591 994448 525
73212 838387 525
453357 281079 449
480822 613889 470
454843 697722 509
938664 66915 525
883666 926719 476
504650 438774 444
496248 45298 449
11360 293701 443
282328 989853 525
36928 735377 509
576911 547331 421
224636 932624 525
396117 226113 443
972372 563603 525
610121 322659 470
137100 737085 509
84561 337394 443
491328 836903 509
651938 904997 525
540664 841481 525
650564 182144 509
695380 829354 504
320302 142637 443
292163 468973 449
4055 505231 449
307313 292017 371
225771 424493 449
310136 434385 449
637916 237201 509
399101 194444 443
743365 77770 509
742345 357974 509
61102 755163 509
282034 737706 509
800609 738095 468
161492 117286 383
836041 821230 419
403078 871252 525
906158 224338 525
383728 630801 509
139593 163480 383
985418 462800 525
383778 766172 509
57795 963894 525
288308 442448 449
327213 648849 509
879813 994225 507
718245 791783 468
318114 917389 525
588805 495666 470
598756 993316 525
273716 550534 470
695703 176291 509
453737 579469 470
726686 502024 509
490058 730249 509
797887 522864 509
615400 180260 470
824679 419437 509
240204 259965 368
204166 833171 509
186755 994734 525
355664 66629 443
792174 742419 468
360770 783161 509
928968 414691 525
911669 413031 525
277037 878571 525
972784 615294 525
491230 565870 470
656003 998562 525
100000 100000 129
