493455 835856 509
238345 291975 407
436927 151527 449
197378 17363 383
362077 74537 443
420964 720877 509
196429 566280 470
143087 814950 509
685422 783924 504
701206 636534 442
280259 122793 443
931079 599940 525
859814 63472 525
147818 638100 509
149580 573554 470
219174 454160 449
650753 84425 509
140395 453909 449
999081 740267 525
79560 484440 449
935730 699477 525
78093 665578 509
491404 757919 509
463284 667972 509
560147 458969 470
557891 765424 509
770682 157059 509
456542 868853 525
450861 209426 449
479419 535475 470
524726 585044 452
410807 639129 509
381891 700214 509
783400 986347 525
115385 217049 386
278836 667595 509
36812 874097 525
780726 344303 509
46609 157613 383
738572 989649 525
262382 767469 509
279200 824714 509
289765 383506 441
936991 321472 525
657913 196054 509
964977 180276 525
235708 28705 443
935901 131814 525
894935 651841 525
745750 262197 509
293158 62240 443
191748 314680 443
411672 87052 449
12676 82689 351
402915 659718 509
651440 576179 509
376867 510906 449
28109 117004 354
987431 819283 525
296247 898833 525
67494 574977 470
896160 833329 525
105282 22811 351
215770 696621 509
54865 572917 470
823105 688802 504
830056 993103 525
544046 524029 408
843695 530322 525
624683 79926 470
123218 847882 525
839805 452414 525
858631 310540 525
687311 985683 525
720443 201348 509
742901 476933 509
922790 912180 445
840258 291616 525
800981 14086 509
988970 567337 525
622823 384121 470
845784 33149 525
459574 242119 449
114331 225907 386
205062 33788 383
464306 46457 449
250442 585863 470
433155 665811 509
897251 854486 445
301598 765132 509
322904 889782 525
118964 973164 525
800415 347581 509
895067 150960 525
918126 993523 507
472450 866073 525
745382 165272 509
746145 997054 525
246554 85304 443
707674 913951 525
758506 249796 509
255802 91665 443
15551 858344 525
838671 330375 525
31107 394785 443
770237 980907 525
126774 21120 354
498485 702769 509
537162 404598 470
193772 318731 443
312825 962208 525
772663 272213 509
693796 277395 509
875967 42368 525
732696 620534 509
379263 626619 509
709071 87733 509
730004 861576 525
795551 861764 525
777371 920600 525
511639 494464 426
789365 799944 468
732369 911657 525
36193 985281 525
406764 49725 443
659830 776535 504
684987 647133 442
546717 941352 525
853259 734793 525
573834 466159 470
332065 795861 509
908026 178630 525
5869 398592 443
4214 926553 525
321507 345129 384
570234 815422 509
917612 24619 525
44363 730750 509
28877 710782 509
66125 971 340
546650 2100 470
11854 592912 470
411330 467023 444
913498 674250 525
962167 827120 525
982520 725919 525
976594 687837 525
520269 642414 509
393835 909545 525
212074 418987 449
136541 200835 383
674335 92159 509
19367 411478 449
652239 573598 509
464858 304289 449
450263 897286 525
634706 293072 509
18490 186030 383
628384 748152 504
614806 335769 470
601370 991447 525
116369 14755 354
11601 29830 308
863306 79558 525
715492 408515 509
383459 920994 525
303845 305490 340
468981 570455 470
893078 133474 525
854017 620724 525
568759 467701 470
177163 145311 383
816028 75778 509
3309 836380 509
565505 190168 470
426487 523824 470
933434 934335 414
178674 86580 383
341285 990346 525
229094 522244 470
462703 178742 449
574354 602117 434
364689 610733 470
291841 106233 443
285017 468313 449
957112 106524 525
719416 269591 509
210589 146195 383
879684 684706 525
599683 449475 470
127880 581906 470
819565 488328 509
691898 3904 509
129071 331318 443
824245 201356 509
27863 204704 383
578430 683356 509
246739 607009 470
546427 484057 470
725079 135631 509
225803 490048 449
527720 907742 525
166564 724900 509
588146 87608 470
685472 945271 525
755670 568537 509
729530 767218 424
871377 300135 525
420530 811903 509
500910 100089 449
918984 36602 525
511751 44660 449
508492 499950 426
898471 693140 525
220506 299624 443
131487 468953 449
894668 316144 525
833194 493676 509
301347 698259 509
769916 50185 509
840671 733382 525
988897 637203 525
376330 860784 525
426704 269984 449
962586 105786 525
468645 280411 449
579412 139932 470
748438 374767 509
503324 505143 364
943166 118485 525
610472 279088 470
440618 334614 449
733708 604553 509
534434 126365 470
176823 57309 383
237083 363967 441
626810 785015 504
891441 512213 525
999001 713938 525
508905 617449 470
200069 890770 525
165215 121394 383
400360 203611 443
844775 924066 476
169733 309157 443
840086 779221 525
749981 582418 509
184920 673082 509
812146 300784 509
628263 310785 509
