398343 159104 443
171670 357081 443
932322 486898 525
477887 143344 449
136143 751872 509
361828 546658 470
171777 509707 449
455802 605115 470
580964 924663 525
152580 435677 449
356754 307460 441
380063 986935 525
325214 647974 509
276100 309829 389
999132 923270 507
966994 196829 525
497333 505465 426
418610 327351 449
592449 797230 509
181639 746017 509
597011 647458 509
345721 523256 470
956915 135917 525
720763 907817 525
148582 131328 375
435356 959527 525
350393 437571 449
804533 475847 509
777869 122106 509
507014 765494 509
387793 635972 509
977425 919838 507
374924 406398 436
523068 631199 509
113485 183303 383
572825 551669 421
811430 358237 509
509027 717951 509
939520 706328 525
477183 702254 509
160311 591210 470
176677 961413 525
873688 662477 525
783922 446692 509
364288 869257 525
572222 732497 509
441095 161185 449
593078 117810 470
302774 698339 509
422961 154404 449
216545 449485 449
481841 420462 444
614526 651703 509
840022 949127 507
665199 957661 525
849132 649768 525
870178 370619 525
923388 157694 525
363504 704533 509
640728 564965 509
610933 106375 470
646163 706023 504
294967 577630 470
204071 883439 525
199106 953999 525
872982 876929 432
416914 550553 470
182038 641026 509
514996 103847 470
185849 268587 443
509748 669840 509
351576 171115 443
879279 447183 525
921112 838304 476
393100 381136 436
826239 603096 509
200233 737285 509
878665 470200 525
858859 110091 525
862651 265551 525
955720 508002 525
432226 372546 449
739999 805193 468
804589 144574 509
727324 803638 468
218682 572098 470
986879 850940 507
456282 775311 509
820332 810715 450
360508 126060 443
476536 717910 509
323013 879428 525
626904 493173 509
477311 432949 444
895239 469102 525
142476 450819 449
608289 474215 470
705319 754808 424
767189 797645 468
474350 573624 470
916064 359414 525
646341 712006 504
885357 809249 525
625342 995958 525
259249 136991 443
962440 939912 414
328488 168759 443
771769 684130 504
696794 425917 509
971502 194757 525
968791 310523 525
173402 295584 443
674454 289873 509
331329 760948 509
676935 308845 509
875613 807067 525
855784 144544 525
564397 287537 470
299903 672421 509
596893 178775 470
672232 877997 525
762896 708661 424
880620 750856 525
165383 880548 525
768936 630603 504
707137 719921 411
818053 543406 509
105736 626433 509
398264 760017 509
390763 199171 443
486042 258516 449
291187 520719 470
940538 860917 507
323957 315169 371
712511 881478 525
867279 712986 525
217750 516681 470
910491 989029 507
263126 695771 509
928920 468626 525
352068 708529 509
279651 525327 470
210637 348728 443
664048 748521 504
652097 375626 509
480634 238040 449
723828 162380 509
500664 618937 470
444857 112105 449
803979 709717 468
150865 181575 383
886041 363562 525
311405 507123 449
400602 308487 441
525191 681845 509
609198 633177 509
304905 368740 441
442800 818253 509
532737 293516 470
426754 910101 525
424962 912530 525
687523 550321 509
378925 820886 509
231748 690241 509
333132 455651 449
830280 864661 525
276955 931710 525
472744 134874 449
126318 575740 470
712816 785699 468
511186 792989 509
517843 903793 525
924075 681267 525
495650 165107 449
433553 691551 509
804715 846009 525
142989 544885 470
315899 522587 470
115796 466915 449
661545 355883 509
370714 194922 443
361984 285983 441
298710 623645 470
690850 392049 509
995556 172701 525
872199 412857 525
645574 705004 504
744217 767735 424
997187 126890 525
979855 583229 525
210869 121053 383
927935 495576 525
421752 594885 470
868533 494595 525
631780 483640 509
608874 235775 470
190822 683342 509
718385 838510 525
341491 749009 509
573505 912588 525
384736 469909 449
288495 204489 443
849479 568430 525
670486 295680 509
431328 815949 509
215010 706582 509
453020 651629 509
802547 416914 509
455178 978010 525
547888 469053 470
887887 470378 525
189049 959064 525
131145 435524 449
301160 125037 443
114793 486240 449
